paper/figures/timing-diags/fib.vcd
$date
	Sun Oct 13 12:31:51 2024
$end
$version
	GTKWave Analyzer v3.3.118 (w)1999-2023 BSI
$end
$timescale
	1ps
$end
$scope module TOP $end
$scope module cpu $end
$scope module control_unit $end
$var wire 1 " clock $end
$var bit 4 # state $end
$var bit 8 $ macro_instruction $end
$upscope $end
$scope module rax $end
$var wire 8 % reg_a $end
$upscope $end
$scope module rbx $end
$var wire 8 & reg_b $end
$upscope $end
$scope module rcx $end
$var bit 8 ' reg_c $end
$upscope $end
$upscope $end
$upscope $end
$enddefinitions $end
#1
$dumpvars
b0 &
0"
b0 '
b0 %
b0 $
b0 #
$end
#5
b1 #
1"
#10
0"
#15
1"
b10 #
#20
0"
#25
1"
b11 #
#30
0"
b1 $
#35
b100 #
1"
#40
0"
#45
1"
b101 #
#50
0"
#55
1"
b0 #
#60
0"
#65
1"
b1 #
#70
0"
#75
1"
b10 #
#80
0"
#85
1"
b11 #
#90
b10 $
0"
#95
1"
b100 #
#100
0"
#105
1"
b101 #
#110
0"
b1 &
#115
1"
b0 #
#120
0"
#125
1"
b1 #
#130
0"
#135
1"
b10 #
#140
0"
#145
1"
b11 #
#150
0"
b11 $
#155
b100 #
1"
#160
0"
#165
1"
b101 #
#170
b1 '
0"
#175
1"
b0 #
#180
0"
#185
1"
b1 #
#190
0"
#195
1"
b10 #
#200
0"
#205
1"
b11 #
#210
0"
b100 $
#215
1"
b100 #
#220
0"
#225
1"
b101 #
#230
0"
b1 %
#235
b0 #
1"
#240
0"
#245
1"
b1 #
#250
0"
#255
1"
b10 #
#260
0"
#265
1"
b11 #
#270
b101 $
0"
#275
1"
b100 #
#280
0"
#285
1"
b101 #
#290
0"
#295
1"
b0 #
#300
0"
#305
1"
b1 #
#310
0"
#315
1"
b10 #
#320
0"
#325
1"
b11 #
#330
0"
b11 $
#335
b100 #
1"
#340
0"
#345
1"
b101 #
#350
0"
b10 '
#355
1"
b0 #
#360
0"
#365
1"
b1 #
#370
0"
#375
1"
b10 #
#380
0"
#385
1"
b11 #
#390
b100 $
0"
#395
1"
b100 #
#400
0"
#405
1"
b101 #
#410
0"
#415
1"
b0 #
#420
0"
#425
1"
b1 #
#430
0"
#435
1"
b10 #
#440
0"
#445
1"
b11 #
#450
0"
b101 $
#455
b100 #
1"
#460
0"
#465
1"
b101 #
#470
b10 &
0"
#475
1"
b0 #
#480
0"
#485
1"
b1 #
#490
0"
#495
1"
b10 #
#500
0"
#505
1"
b11 #
#510
0"
b11 $
#515
1"
b100 #
#520
0"
#525
1"
b101 #
#530
0"
b11 '
#535
b0 #
1"
#540
0"
#545
1"
b1 #
#550
0"
#555
1"
b10 #
#560
0"
#565
1"
b11 #
#570
b100 $
0"
#575
1"
b100 #
#580
0"
#585
1"
b101 #
#590
0"
b10 %
#595
1"
b0 #
#600
0"
#605
1"
b1 #
#610
0"
#615
1"
b10 #
#620
0"
#625
1"
b11 #
#630
0"
b101 $
#635
b100 #
1"
#640
0"
#645
1"
b101 #
#650
0"
b11 &
#655
1"
b0 #
#660
0"
#665
1"
b1 #
#670
0"
#675
1"
b10 #
#680
0"
#685
1"
b11 #
#690
b11 $
0"
#695
1"
b100 #
#700
0"
#705
1"
b101 #
#710
0"
b101 '
#715
1"
b0 #
#720
0"
#725
1"
b1 #
#730
0"
#735
1"
b10 #
#740
0"
#745
1"
b11 #
#750
0"
b100 $
#755
b100 #
1"
#760
0"
#765
1"
b101 #
#770
b11 %
0"
#775
1"
b0 #
#780
0"
#785
1"
b1 #
#790
0"
#795
1"
b10 #
#800
0"
#805
1"
b11 #
#810
0"
b101 $
#815
1"
b100 #
#820
0"
#825
1"
b101 #
#830
0"
b101 &
#835
b0 #
1"
#840
0"
#845
1"
b1 #
#850
0"
#855
1"
b10 #
#860
0"
#865
1"
b11 #
#870
b11 $
0"
#875
1"
b100 #
#880
0"
#885
1"
b101 #
#890
0"
b1000 '
#895
1"
b0 #
#900
0"
#905
1"
b1 #
#910
0"
#915
1"
b10 #
#920
0"
#925
1"
b11 #
#930
0"
b100 $
#935
b100 #
1"
#940
0"
#945
1"
b101 #
#950
0"
b101 %
#955
1"
b0 #
#960
0"
#965
1"
b1 #
#970
0"
#975
1"
b10 #
#980
0"
#985
1"
b11 #
#990
b101 $
0"
#995
1"
b100 #
#1000
0"
#1005
1"
b101 #
#1010
0"
b1000 &
#1015
1"
b0 #
#1020
0"
#1025
1"
b1 #
#1030
0"
#1035
1"
b10 #
#1040
0"
#1045
1"
b11 #
#1050
0"
b11 $
#1055
b100 #
1"
#1060
0"
#1065
1"
b101 #
#1070
b1101 '
0"
#1075
1"
b0 #
#1080
0"
#1085
1"
b1 #
#1090
0"
#1095
1"
b10 #
#1100
0"
#1105
1"
b11 #
#1110
0"
b100 $
#1115
1"
b100 #
#1120
0"
#1125
1"
b101 #
#1130
0"
b1000 %
#1135
b0 #
1"
#1140
0"
#1145
1"
b1 #
#1150
0"
#1155
1"
b10 #
#1160
0"
#1165
1"
b11 #
#1170
b101 $
0"
#1175
1"
b100 #
#1180
0"
#1185
1"
b101 #
#1190
0"
b1101 &
#1195
1"
b0 #
#1200
0"
#1205
1"
b1 #
#1210
0"
#1215
1"
b10 #
#1220
0"
#1225
1"
b11 #
#1230
0"
b11 $
#1235
b100 #
1"
#1240
0"
#1245
1"
b101 #
#1250
0"
b10101 '
#1255
1"
b0 #
#1260
0"
#1265
1"
b1 #
#1270
0"
#1275
1"
b10 #
#1280
0"
#1285
1"
b11 #
#1290
b100 $
0"
#1295
1"
b100 #
#1300
0"
#1305
1"
b101 #
#1310
0"
b1101 %
#1315
1"
b0 #
#1320
0"
#1325
1"
b1 #
#1330
0"
#1335
1"
b10 #
#1340
0"
#1345
1"
b11 #
#1350
0"
b101 $
#1355
b100 #
1"
#1360
0"
#1365
1"
b101 #
#1370
b10101 &
0"
#1375
1"
b0 #
#1380
0"
#1385
1"
b1 #
#1390
0"
#1395
1"
b10 #
#1400
0"
#1405
1"
b11 #
#1410
0"
b11 $
#1415
1"
b100 #
#1420
0"
#1425
1"
b101 #
#1430
0"
b100010 '
#1435
b0 #
1"
#1440
0"
#1445
1"
b1 #
#1450
0"
#1455
1"
b10 #
#1460
0"
#1465
1"
b11 #
#1470
b100 $
0"
#1475
1"
b100 #
#1480
0"
#1485
1"
b101 #
#1490
0"
b10101 %
#1495
1"
b0 #
#1500
0"
#1505
1"
b1 #
#1510
0"
#1515
1"
b10 #
#1520
0"
#1525
1"
b11 #
#1530
0"
b101 $
#1535
b100 #
1"
#1540
0"
#1545
1"
b101 #
#1550
0"
b100010 &
#1555
1"
b0 #
#1560
0"
#1565
1"
b1 #
#1570
0"
#1575
1"
b10 #
#1580
0"
#1585
1"
b11 #
#1590
b11 $
0"
#1595
1"
b100 #
#1600
0"
#1605
1"
b101 #
#1610
0"
b110111 '
#1615
1"
b0 #
#1620
0"
#1625
1"
b1 #
#1630
0"
#1635
1"
b10 #
#1640
0"
#1645
1"
b11 #
#1650
0"
b100 $
#1655
b100 #
1"
#1660
0"
#1665
1"
b101 #
#1670
b100010 %
0"
#1675
1"
b0 #
#1680
0"
#1685
1"
b1 #
#1690
0"
#1695
1"
b10 #
#1700
0"
#1705
1"
b11 #
#1710
0"
b101 $
#1715
1"
b100 #
#1720
0"
#1725
1"
b101 #
#1730
0"
b110111 &
#1735
b0 #
1"
#1740
0"
#1745
1"
b1 #
#1750
0"
#1755
1"
b10 #
#1760
0"
#1765
1"
b11 #
#1770
b11 $
0"
#1775
1"
b100 #
#1780
0"
#1785
1"
b101 #
#1790
0"
b1011001 '
#1795
1"
b0 #
#1800
0"
#1805
1"
b1 #
#1810
0"
#1815
1"
b10 #
#1820
0"
#1825
1"
b11 #
#1830
0"
b100 $
#1835
b100 #
1"
#1840
0"
#1845
1"
b101 #
#1850
0"
b110111 %
#1855
1"
b0 #
#1860
0"
#1865
1"
b1 #
#1870
0"
#1875
1"
b10 #
#1880
0"
#1885
1"
b11 #
#1890
b101 $
0"
#1895
1"
b100 #
#1900
0"
#1905
1"
b101 #
#1910
0"
b1011001 &
#1915
1"
b0 #
#1920
0"
#1925
1"
b1 #
#1930
0"
#1935
1"
b10 #
#1940
0"
#1945
1"
b11 #
#1950
0"
b110 $
#1955
b100 #
1"
