paper/figures/timing-diags/nsum.vcd
$date
	Sun Oct 13 19:24:58 2024
$end
$version
	GTKWave Analyzer v3.3.118 (w)1999-2023 BSI
$end
$timescale
	1ps
$end
$scope module TOP $end
$scope module cpu $end
$scope module alu $end
$var bit 1 " is_carry $end
$upscope $end
$scope module control_unit $end
$var wire 1 # halt $end
$upscope $end
$scope module rax $end
$var wire 8 $ reg_a $end
$upscope $end
$scope module rbx $end
$var wire 8 % reg_b $end
$upscope $end
$scope module rcx $end
$var bit 8 & reg_c $end
$upscope $end
$upscope $end
$upscope $end
$enddefinitions $end
#1
$dumpvars
b0 &
0"
b0 $
b0 %
0#
$end
#170
b1 $
#230
b1 %
#290
b0 $
#350
b1 &
#470
b1 $
#530
b10 %
#650
b11 &
#830
b11 %
#890
b11 $
#950
b110 &
#1070
b1 $
#1130
b100 %
#1190
b110 $
#1250
b1010 &
#1370
b1 $
#1430
b101 %
#1490
b1010 $
#1550
b1111 &
#1670
b1 $
#1730
b110 %
#1790
b1111 $
#1850
b10101 &
#1970
b1 $
#2030
b111 %
#2090
b10101 $
#2150
b11100 &
#2270
b1 $
#2330
b1000 %
#2390
b11100 $
#2450
b100100 &
#2570
b1 $
#2630
b1001 %
#2690
b100100 $
#2750
b101101 &
#2870
b1 $
#2930
b1010 %
#2990
b101101 $
#3050
b110111 &
#3170
b1 $
#3230
b1011 %
#3290
b110111 $
#3350
b1000010 &
#3470
b1 $
#3530
b1100 %
#3590
b1000010 $
#3650
b1001110 &
#3770
b1 $
#3830
b1101 %
#3890
b1001110 $
#3950
b1011011 &
#4070
b1 $
#4130
b1110 %
#4190
b1011011 $
#4250
b1101001 &
#4370
b1 $
#4430
b1111 %
#4490
b1101001 $
#4550
b1111000 &
#4670
b1 $
#4730
b10000 %
#4790
b1111000 $
#4850
b10001000 &
#4970
b1 $
#5030
b10001 %
#5090
b10001000 $
#5150
b10011001 &
#5270
b1 $
#5330
b10010 %
#5390
b10011001 $
#5450
b10101011 &
#5570
b1 $
#5630
b10011 %
#5690
b10101011 $
#5750
b10111110 &
#5870
b1 $
#5930
b10100 %
#5990
b10111110 $
#6050
b11010010 &
#6170
b1 $
#6230
b10101 %
#6290
b11010010 $
#6350
b11100111 &
#6470
b1 $
#6530
b10110 %
#6590
b11100111 $
#6650
b11111101 &
#6770
b1 $
#6830
b10111 %
#6890
b11111101 $
#6945
1"
#6950
b10100 &
#7050
1#
